{
    "file": "fragments/pflow-base.json",
    "dl2_configs": [
        {
            "nn_file_path": "BTagging/20231205/GN2v01/antikt4empflow/network_fold0.onnx",
            "engine": "gnn"
        }
    ],
    "variables": {
        "jet" : {
            "ints" : [
                "n_tracks"
            ]
        },
        "btagging": {
            "floats": [
                "GN2v00_pb",
                "GN2v00_pc",
                "GN2v00_pu"
            ]
        }
    },
    "tracks": [
        {
            "n_to_save": 40,
            "selection": {
                "file": "fragments/r22default-track-cuts.json"
            },
            "sort_order": "d0_significance",
            "btagging_link": "btaggingLink",
            "input_name": "BTagTrackToJetAssociator",
            "output_name": "tracks",
            "variables": {
                "file": "fragments/pflow-track-variables-all.json",
                "ints" : [
                    "ftagTruthBarcode",
                    "ftagTruthParentBarcode"
                ]
            },
            "ip_prefix": "btagIp_"
        }
    ],
    "truths": [
        {
            "association": {
                "file": "fragments/baseline-truth-kinematics.json",
                "particles": "truth_hadrons"
            },
            "output": {
                "n_to_save": 5,
                "sort_order": "pt"
            }
        },
        {
            "association": {
                "file": "fragments/baseline-truth-kinematics.json",
                "particles": "truth_leptons"
            },
            "output": {
                "n_to_save": 5,
                "sort_order": "pt"
            }
        },
        {
            "association": {
                "file": "fragments/baseline-truth-kinematics.json",
                "particles": "truth_fromBC"
            },
            "output": {
                "n_to_save": 5,
                "sort_order": "pt"
            }
        },
        {
            "merge": [
                "ConeExclTausFinal",
                "ConeExclCHadronsFinal",
                "ConeExclBHadronsFinal"
            ],
            "association_name": "ConeExclFinalLabels",
            "output": {
                "n_to_save": 5,
                "sort_order": "pt"
            }
        }
    ]
}
