{
    "jet_collection": "AntiKt4UFOCSSKJets",
    "calibration": { "file": "fragments/ufo-calibration.json" },
    "selection": { "file": "fragments/pflow-selection.json" },
    "vertex_collection": "PrimaryVertices",
    "dl2_configs": [],
    "variables": {
        "file": "fragments/ufo-variables.json",
        "jet" : {
            "uints": ["jetFoldHash", "jetFoldHash_noHits"],
            "floats": [
                "dRGN2v01_pb",
                "dRGN2v01_pc",
                "dRGN2v01_pu",
                "dRGN2v01_ptau",
                "GAGN2v01_pb",
                "GAGN2v01_pc",
                "GAGN2v01_pu",
                "GAGN2v01_ptau"
            ]
        }
    },
    "tracks": [
        {
            "n_to_save": 40,
            "selection": { "file": "fragments/r22default-track-cuts.json" },
            "sort_order": "d0_significance",
            "input_name": "DeltaRTrackLink",
            "output_name": "dRtracks",
            "variables": { "file": "fragments/ufo-track-variables.json"},
            "ip_prefix": "btagIp_"   
        },
        {
            "n_to_save": 40,
            "selection": { "file": "fragments/r22default-track-cuts.json" },
            "sort_order": "d0_significance",
            "input_name": "GhostTrack",
            "output_name": "GAtracks",
            "variables": { "file": "fragments/ufo-track-variables.json"},
            "ip_prefix": "btagIp_"   
        },
        {
            "n_to_save": 40,
            "selection": {
                "file": "fragments/r22default-track-cuts.json"
            },
            "sort_order": "d0_significance",
            "input_name": "nonConstituentTracks",
            "output_name": "tracks_loose",
            "variables": {
                "file": "fragments/ufo-track-variables.json"
            },
            "ip_prefix": "btagIp_"
        }
    ],
    "flow": [{
        "type": "flow",
        "output_name": "neutral",
        "n_to_save": 40,
        "accessor": "neutralConstituentLinks",
        "variables": {
            "customs": [
                "flow_pt",
                "flow_energy",
                "flow_deta",
                "flow_dphi",
                "flow_dr"
            ]
        },
        "edm_names": {
            "flow_pt": "pt",
            "flow_energy": "energy",
            "flow_deta": "deta",
            "flow_dphi": "dphi",
            "flow_dr": "dr"
        }
    },
    {
        "type": "flow",
        "output_name": "charged",
        "n_to_save": 40,
        "accessor": "chargedConstituentLinks",
        "variables": {
            "customs": [
                "flow_pt",
                "flow_energy",
                "flow_deta",
                "flow_dphi",
                "flow_dr"
            ]
        },
        "edm_names": {
            "flow_pt": "pt",
            "flow_energy": "energy",
            "flow_deta": "deta",
            "flow_dphi": "dphi",
            "flow_dr": "dr"
        },
        "associations": {
            "track": {
                "variables": {
                    "file": "fragments/ufo-track-variables.json"
                },
                "edm_names": {
                    "ip_prefix": "btagIp_"
                }
            }
        }
    }],
    "truths" : [
        { "file": "fragments/overlap-leptons-TRUTH3.json" },
        {
            "association": {
                "file": "fragments/baseline-truth-kinematics.json",
                "particles": "promptLepton"
            },
            "decorate_summary": true
        }
    ],
    "decorate": {
        "lepton_decay_label": true
    },
    "ca_blocks": [
        {
            "block":"ShrinkingConeAssociation",
            "jet_collection":"AntiKt4UFOCSSKJets",
            "track_collection":"InDetTrackParticles",
            "link_name":"DeltaRTrackLink"
        },
        {
            "block":"FoldHashDecorator",
            "jet_collection":"AntiKt4UFOCSSKJets"
        },
        {
            "block": "MultifoldTagger",
            "nn_paths": [
                "BTagging/20231205/GN2v01/antikt4empflow/network_fold0.onnx",
                "BTagging/20231205/GN2v01/antikt4empflow/network_fold1.onnx",
                "BTagging/20231205/GN2v01/antikt4empflow/network_fold2.onnx",
                "BTagging/20231205/GN2v01/antikt4empflow/network_fold3.onnx"
            ],
            "target":"Jet",
            "jet_collection":"AntiKt4UFOCSSKJets",
            "remap": {
                "BTagTrackToJetAssociator":"DeltaRTrackLink",
                "GN2v01_pb": "dRGN2v01_pb",
                "GN2v01_pc": "dRGN2v01_pc",
                "GN2v01_pu": "dRGN2v01_pu",
                "GN2v01_ptau": "dRGN2v01_ptau"
            },
            "constituents":"InDetTrackParticles"
        },
        {
            "block": "MultifoldTagger",
            "nn_paths": [
                "BTagging/20231205/GN2v01/antikt4empflow/network_fold0.onnx",
                "BTagging/20231205/GN2v01/antikt4empflow/network_fold1.onnx",
                "BTagging/20231205/GN2v01/antikt4empflow/network_fold2.onnx",
                "BTagging/20231205/GN2v01/antikt4empflow/network_fold3.onnx"
            ],
            "target":"Jet",
            "jet_collection":"AntiKt4UFOCSSKJets",
            "constituents":"constituents",
            "remap": {
                "BTagTrackToJetAssociator": "GhostTrack",
                "GN2v01_pb": "GAGN2v01_pb",
                "GN2v01_pc": "GAGN2v01_pc",
                "GN2v01_pu": "GAGN2v01_pu",
                "GN2v01_ptau": "GAGN2v01_ptau"
            }
        },
        {
            "block":"TrackFlowOverlapRemoval",
            "jet_collection":"AntiKt4UFOCSSKJets",
            "track_container":"GhostTrack"
        },
        {
            "block":"FlowSelector",
            "jet_collection":"AntiKt4UFOCSSKJets"
        }
    ]
}
